{
  "name": "linuxpatch-agent",
  "version": "0.1.5",
  "author": "linuxpatch",
  "summary": "Linux patch management with LinuxPatch.com: automated updates, CVE reporting, Healthchecks, and free for up to 3 servers. Secure & real-time.",
  "license": "Apache-2.0",
  "source": "https://github.com/linuxpatch/linuxpatch-puppet",
  "project_page": "https://github.com/linuxpatch/linuxpatch-puppet",
  "issues_url": "https://github.com/linuxpatch/linuxpatch-puppet/issues",
  "dependencies": [
    {
      "name": "puppetlabs/stdlib",
      "version_requirement": ">= 4.25.0 < 7.0.0"
    },
    {
      "name": "puppetlabs/concat",
      "version_requirement": ">= 6.0.0 < 8.0.0"
    }
  ],
  "operatingsystem_support": [
    {
      "operatingsystem": "Debian",
      "operatingsystemrelease": [
        "8",
        "9",
        "10",
        "11",
        "12"
      ]
    },
    {
      "operatingsystem": "Ubuntu",
      "operatingsystemrelease": [
        "16.04",
        "18.04",
        "20.04",
        "22.04",
        "23.10",
        "24.04"
      ]
    },
    {
      "operatingsystem": "CentOS",
      "operatingsystemrelease": [
        "7",
        "8",
        "9"
      ]
    },
    {
      "operatingsystem": "RedHat",
      "operatingsystemrelease": [
        "7",
        "8"
      ]
    },
    {
      "operatingsystem": "Rocky",
      "operatingsystemrelease": [
        "8",
        "9"
      ]
    },
    {
      "operatingsystem": "AlmaLinux",
      "operatingsystemrelease": [
        "8",
        "9"
      ]
    },
    {
      "operatingsystem": "AmazonLinux",
      "operatingsystemrelease": [
        "2",
        "2023"
      ]
    }
  ],
  "requirements": [
    {
      "name": "puppet",
      "version_requirement": ">= 7.24 < 9.0.0"
    }
  ],
  "pdk-version": "3.2.0",
  "template-url": "pdk-default#3.2.0",
  "template-ref": "tags/3.2.0-0-gb257ef1"
}
